…
If you like, you can type this hex value into google and verify that it matches the skin color in the upper left of the photo.

We can use a similar process to figure out how many colors there are in total in this photo. We’ll apply the rgb function to the 3 color channels to flatten down the array into a 2 dimensional matrix of hex values (I love purrr more than anyone, but it’s not designed to work on arrays and matrices, so we’ll go old skool). Then we’ll tabulate the hex values, convert it to a tibble, and sort it by count.

eye_hex_values <- apply(eye_rgb, MARGIN = c(1,2), function(x) rgb(x[1], x[2], x[3])) 

tabled_hex_values <- table(c(eye_hex_values))

hex_df <- tabled_hex_values  |>  
  as_tibble(.name_repair = make.names) |> 
  arrange(desc(n)) |> 
  rename(hex_value = X, cnt = n) |> 
  mutate(percent_of_total = scales::percent(cnt/sum(cnt)))
hex_df
## # A tibble: 42,861 × 3
##    hex_value   cnt percent_of_total
##    <chr>     <int> <chr>           
##  1 #C9AEA3    1572 0.62649%        
##  2 #CAAFA4     929 0.37024%        
##  3 #C3A79B     877 0.34951%        
##  4 #C7AFA3     755 0.30089%        
##  5 #C7AFA5     625 0.24908%        
##  6 #C5ADA3     620 0.24709%        
##  7 #C4ACA2     571 0.22756%        
##  8 #C2A69A     561 0.22358%        
##  9 #C1A599     503 0.20046%        
## 10 #C5ADA1     472 0.18811%        
## # ℹ 42,851 more rows
…
  tabled_hex_values <- table(c(hex_values))

  # return in dataframe format
  tabled_hex_values |> 
    as_tibble(.name_repair = make.names) |> 
    arrange(desc(n)) |> 
    rename(hex_value = X, cnt = n) |> 
    mutate(percent_of_total = cnt/sum(cnt))
}

color_count("images/flag_images/fi.png")
## Warning in removeBackground(img, lower = lower, upper = upper, quietly =
## alpha.message, : No transparent pixels in image
## # A tibble: 38 × 3
##    hex_value    cnt percent_of_total
##    <chr>      <int>            <dbl>
##  1 #FFFFFF   149464          0.597  
##  2 #003580    94228          0.377  
##  3 #000077     1344          0.00537
##  4 #173B82     1060          0.00424
##  5 #6E7BA2     1056          0.00422
##  6 #FEFFFF     1056          0.00422
##  7 #00006F      284          0.00113
##  8 #E0E2E8      282          0.00113
##  9 #FDFDFD      282          0.00113
## 10 #1B3C82      280          0.00112
## # ℹ 28 more rows
…
One of the sweetest flags in the world

But when we use the 1% cutoff, we see two different shades of blue. They’re almost imperceptible to the human eye, and one (#3E5EB9) represents 36% whereas the other (#3D5DA7) only represents 1.8%.

swaziland_path <- file.path("images/flag_images/sz.png")
color_count(swaziland_path)
## Warning in removeBackground(img, lower = lower, upper = upper, quietly =
## alpha.message, : No transparent pixels in image
## # A tibble: 4,080 × 3
##    hex_value   cnt percent_of_total
##    <chr>     <int>            <dbl>
##  1 #3E5EB9   92160          0.338  
##  2 #B10C0C   78230          0.287  
##  3 #FFD900   30361          0.111  
##  4 #FFFFFF   14466          0.0531 
##  5 #000000   14053          0.0515 
##  6 #3D5DA7    2250          0.00825
##  7 #FED800    1290          0.00473
##  8 #FFDB00    1287          0.00472
##  9 #AB000D    1280          0.00469
## 10 #FFDF00     941          0.00345
## # ℹ 4,070 more rows
…
